module example

go 1.18

require (
	github.com/deepmap/oapi-codegen v1.12.4
	github.com/getkin/kin-openapi v0.107.0
	github.com/golang/mock v1.6.0
	github.com/google/uuid v1.3.0
	github.com/gorilla/mux v1.8.0
	github.com/stretchr/testify v1.8.1
	openapi.tanna.dev/go/validator v0.3.0
)

require (
	github.com/apapsch/go-jsonmerge/v2 v2.0.0 // indirect
	github.com/davecgh/go-spew v1.1.1 // indirect
	github.com/ghodss/yaml v1.0.0 // indirect
	github.com/go-openapi/jsonpointer v0.19.5 // indirect
	github.com/go-openapi/swag v0.21.1 // indirect
	github.com/invopop/yaml v0.1.0 // indirect
	github.com/josharian/intern v1.0.0 // indirect
	github.com/labstack/echo/v4 v4.9.1 // indirect
	github.com/labstack/gommon v0.4.0 // indirect
	github.com/mailru/easyjson v0.7.7 // indirect
	github.com/mattn/go-colorable v0.1.13 // indirect
	github.com/mattn/go-isatty v0.0.16 // indirect
	github.com/mohae/deepcopy v0.0.0-20170929034955-c48cc78d4826 // indirect
	github.com/pmezard/go-difflib v1.0.0 // indirect
	github.com/valyala/bytebufferpool v1.0.0 // indirect
	github.com/valyala/fasttemplate v1.2.2 // indirect
	golang.org/x/crypto v0.1.0 // indirect
	golang.org/x/mod v0.7.0 // indirect
	golang.org/x/net v0.2.0 // indirect
	golang.org/x/sys v0.2.0 // indirect
	golang.org/x/text v0.4.0 // indirect
	golang.org/x/tools v0.3.0 // indirect
	golang.org/x/xerrors v0.0.0-20220411194840-2f41105eb62f // indirect
	gopkg.in/yaml.v2 v2.4.0 // indirect
	gopkg.in/yaml.v3 v3.0.1 // indirect
)
